<?xml version="1.0" encoding="UTF-8"?>
<svg width="24px" height="24px" viewBox="0 0 24 24" version="1.1" xmlns="http://www.w3.org/2000/svg" xmlns:xlink="http://www.w3.org/1999/xlink">
    <!-- Generator: Sketch 61.1 (89650) - https://sketch.com -->
    <title>Icons/Misc/booking</title>
    <desc>Created with Sketch.</desc>
    <g id="Icons/Misc/booking" stroke="none" stroke-width="1" fill="none" fill-rule="evenodd">
        <path d="M21.1562928,4 L23.4229595,21 L5.40526001,21 L5.00477641,18 L2.16715534e-13,18 L3.5,4 L21.1562928,4 Z M19.4047764,6 L5.42277641,6 L7.15577641,19 L21.1377764,19 L19.4047764,6 Z M3.98077641,10.322 L2.56177641,16 L4.73777641,16 L3.98077641,10.322 Z M17.2807764,11 L17.2807764,13 L9.28077641,13 L9.28077641,11 L17.2807764,11 Z" id="Combined-Shape" fill="#FFFFFF"></path>
    </g>
</svg>