<svg xmlns="http://www.w3.org/2000/svg" width="24" height="24" viewBox="0 0 24 24">
    <g stroke="none" stroke-width="1" fill="none" fill-rule="evenodd">
        <g transform="translate(1.000000, 1.000000)" fill="#fff" fill-rule="nonzero">
            <path d="M11,23 C4.372583,23 -1,17.627417 -1,11 C-1,4.372583 4.372583,-1 11,-1 C17.627417,-1 23,4.372583 23,11 C23,17.627417 17.627417,23 11,23 Z M11,21 C16.5228475,21 21,16.5228475 21,11 C21,5.4771525 16.5228475,1 11,1 C5.4771525,1 1,5.4771525 1,11 C1,16.5228475 5.4771525,21 11,21 Z M10.959,17 C10.4067153,17 9.959,16.5522847 9.959,16 C9.959,15.4477153 10.4067153,15 10.959,15 C11.5112847,15 11.959,15.4477153 11.959,16 C11.959,16.5522847 11.5112847,17 10.959,17 Z M9.959,5 L11.959,5 L11.959,13 L9.959,13 L9.959,5 Z" id="Combined-Shape" />
        </g>
    </g>
</svg>