<svg xmlns="http://www.w3.org/2000/svg" width="24" height="24" viewBox="0 0 24 24">
    <g fill="#fff" fill-rule="nonzero">
        <path d="M12.1 7.5l-7.8 7.8c-.2.2-.3.4-.3.7v3c0 .6.4 1 1 1h3c.3 0 .5-.1.7-.3l7.8-7.8-4.4-4.4zM19.7 7.3l-3-3c-.4-.4-1-.4-1.4 0l-1.8 1.8 4.4 4.4 1.8-1.8c.4-.4.4-1 0-1.4z" />
    </g>
</svg>
