<svg xmlns="http://www.w3.org/2000/svg" width="24" height="24" viewBox="0 0 24 24">
	<path d="M13,16h2v2H9v-2h2v-4H9v-2h4V16z M12,24C5.4,24,0,18.6,0,12S5.4,0,12,0
	s12,5.4,12,12S18.6,24,12,24z M12,22c5.5,0,10-4.5,10-10S17.5,2,12,2S2,6.5,2,12S6.5,22,12,22z M12,8c-0.6,0-1-0.4-1-1s0.4-1,1-1
	s1,0.4,1,1S12.6,8,12,8z" fill="#fff" />
</svg>
