<svg xmlns="http://www.w3.org/2000/svg" width="24" height="24" viewBox="0 0 24 24">
	<path d="M11.8,8.5l3.2,3.1l0-0.2c0-1.7-1.3-3-3-3L11.8,8.5z M7.5,9.3l1.5,1.6C9,11.1,9,11.3,9,11.5c0,1.7,1.3,3,3,3
	c0.2,0,0.4,0,0.7-0.1l1.5,1.6c-0.7,0.3-1.4,0.5-2.2,0.5c-2.8,0-5-2.2-5-5C7,10.7,7.2,10,7.5,9.3z M2,3.8l2.3,2.3l0.5,0.5
	c-1.7,1.3-3,3-3.7,5C2.7,15.9,7,19,12,19c1.6,0,3-0.3,4.4-0.8l0.4,0.4l2.9,2.9l1.3-1.3L3.3,2.5L2,3.8z M12,6.5c2.8,0,5,2.2,5,5
	c0,0.6-0.1,1.3-0.4,1.8l2.9,2.9c1.5-1.3,2.7-2.9,3.4-4.8C21.3,7.1,17,4,12,4c-1.4,0-2.7,0.2-4,0.7l2.2,2.2C10.7,6.6,11.3,6.5,12,6.5
	z" fill="#fff" />
</svg>
