<svg xmlns="http://www.w3.org/2000/svg" width="101" height="32" viewBox="0 0 101 32">
<path d="M5.9,6.8c-0.5,2-1.9,3.6-3.8,4.7c-0.6,0.4-1,1-1,1.7c0,0.2,0,0.3,0.1,0.5c0.1,0.3,0.2,0.5,0.4,0.8
	c0.5,0.6,1.4,0.9,2,1.5c0.7,0.6,1.2,1.2,1.6,1.9c0.9,1.5,0.9,3.4,0.9,5.1v5.1c0,0.2-0.2,0.2-0.3,0.1c-1.7-1.5-3.1-3.3-4.1-5.4
	c0,0,0-0.1,0-0.2v-3.3v-1.9c0-1-0.2-2.1-0.7-3c-0.1-0.2-0.2-0.3-0.3-0.5c-0.2-0.4-0.3-0.8-0.2-1.3c0.7-3.5,2.6-6.6,5.3-8.9
	c0.1-0.1,0.3,0,0.3,0.1v1.2C6.1,5.7,6,6.3,5.9,6.8z M14.8,14.9c-0.5,2-1.9,3.6-3.8,4.7c-0.6,0.4-1,1-1,1.7c0,0.2,0,0.3,0.1,0.5
	c0.1,0.3,0.2,0.5,0.4,0.8c0.5,0.6,1.4,0.9,2,1.5c0.7,0.6,1.2,1.2,1.6,1.9C15,27.5,15,29.4,15,31c0,0.1,0,0.4,0,0.7
	c0,0.2-0.1,0.3-0.3,0.3c-1.4-0.1-2.7-0.4-4-0.9c-0.1,0-0.2-0.1-0.2-0.3v-3.5v-1.9c0-1-0.2-2.1-0.7-3c-0.2-0.5-0.5-0.9-0.8-1.3
	c-0.6-0.8-1.3-1.4-2.2-2c-0.7-0.5-1.3-1.1-1.3-1.9c0-0.7,0.4-1.3,1-1.7c1.9-1.1,3.2-2.7,3.7-4.7c0.1-0.6,0.2-1.2,0.2-1.7V1.2
	c0-0.1,0.1-0.2,0.2-0.3c1.3-0.5,2.6-0.8,4-0.9C14.9,0,15,0.1,15,0.3v12.9C15,13.8,14.9,14.4,14.8,14.9z M19.4,0.6
	c0-0.2,0.2-0.3,0.3-0.3c1.4,0.3,2.7,0.8,4,1.5c0.1,0,0.1,0.1,0.1,0.2v15.2c0,0.6-0.1,1.2-0.2,1.7c-0.5,2-1.9,3.4-3.8,4.7
	c-0.6,0.4-1,1-1,1.7c0,0.2,0,0.3,0.1,0.5c0.1,0.3,0.2,0.5,0.4,0.8c0.5,0.6,1.4,0.9,2,1.5c0.7,0.6,1.2,1.2,1.6,1.9
	c0.1,0.1,0.1,0.2,0.1,0.3c0.1,0.1,0,0.3-0.1,0.4c-1.1,0.5-2.3,0.9-3.5,1.1c-0.1,0-0.3-0.1-0.3-0.2c-0.1-0.3-0.2-0.7-0.4-1
	c-0.2-0.5-0.5-0.9-0.8-1.3c-0.6-0.8-1.3-1.4-2.2-2c-0.7-0.5-1.3-1.1-1.3-1.9c0-0.7,0.4-1.3,1-1.7c1.9-1.1,3.2-2.7,3.7-4.7
	c0.1-0.6,0.2-1.2,0.2-1.7V0.6z M31.3,21.3c0.1,0.1,0.1,0.2,0.1,0.3c-0.7,2-1.8,3.7-3.2,5.3c-0.1,0.1-0.2,0.1-0.3-0.1
	c-0.7-1.6-1.9-2.8-3.5-3.8c-0.6-0.4-1-1-1-1.7c0-0.8,0.6-1.4,1.3-1.9c0.8-0.6,1.7-1.2,2.3-2c0.3-0.4,0.6-0.8,0.8-1.3
	c0.4-0.9,0.7-2,0.7-3v-1.9V5.9c0-0.2,0.2-0.2,0.3-0.1c1.4,1.7,2.5,3.8,3.1,6c0.2,0.6,0,1.2-0.3,1.6c-0.4,0.5-0.8,0.9-1.3,1.3
	c-0.6,0.5-1.4,0.9-2,1.5c-0.2,0.2-0.3,0.5-0.4,0.8c0,0.2-0.1,0.3-0.1,0.5c0,0.7,0.4,1.3,1,1.7C29.7,19.7,30.6,20.4,31.3,21.3z
	 M46.1,6.8L42.3,0h2.3l2.6,4.9L49.8,0H52l-3.9,6.8v5.8h-2V6.8z M57.7,8V0h2v7.9c0,1.8,1,3,2.9,3c1.8,0,2.9-1.2,2.9-3V0h2v7.9
	c0,2.9-1.8,4.9-4.8,4.9C59.4,12.8,57.7,10.9,57.7,8z M74,0h2l6.1,9.4V0h2v12.6h-2L76,3.2v9.4h-2V0z M95.2,2.2l-3.6,10.4h-2L94.1,0
	h2.1l4.6,12.6h-2L95.2,2.2z M43,24.8h3.3v-3.6h1.7v3.6h3.3v1.6h-3.3V30h-1.7v-3.6H43V24.8z M67.6,30.7c-0.6,0.5-2,1.3-3.9,1.3
	c-3.7,0-6.3-2.8-6.3-6.4s2.7-6.4,6.3-6.4c1.7,0,3,0.7,3.7,1.2l-0.6,1.7c-0.5-0.4-1.7-1.1-3.1-1.1c-2.6,0-4.3,2-4.3,4.6
	s1.7,4.6,4.4,4.6c1.6,0,2.7-0.8,3.2-1.2L67.6,30.7z M79.1,30.2c2.5,0,4.3-1.9,4.3-4.6c0-2.6-1.8-4.6-4.3-4.6c-2.5,0-4.3,2-4.3,4.6
	C74.8,28.2,76.6,30.2,79.1,30.2z M79.1,19.2c3.7,0,6.3,2.8,6.3,6.4c0,3.6-2.7,6.4-6.3,6.4c-3.7,0-6.3-2.8-6.3-6.4
	C72.7,22,75.4,19.2,79.1,19.2z M95.1,29.5c0.7,0,1.2,0.6,1.2,1.2c0,0.7-0.6,1.2-1.2,1.2c-0.7,0-1.2-0.6-1.2-1.2
	C93.9,30.1,94.5,29.5,95.1,29.5z" fill="#fff" />
</svg>
